[gd_scene load_steps=5 format=2]

[ext_resource path="res://Scripts/Area2D.gd" type="Script" id=1]
[ext_resource path="res://platformer-art-complete-pack-0/Base pack/Tiles/door_openMid.png" type="Texture" id=2]
[ext_resource path="res://platformer-art-complete-pack-0/Base pack/Tiles/door_openTop.png" type="Texture" id=3]

[sub_resource type="RectangleShape2D" id=1]
extents = Vector2( 82.254, 145.717 )

[node name="Goal" type="Area2D"]
script = ExtResource( 1 )

[node name="CollisionShape2D" type="CollisionShape2D" parent="."]
shape = SubResource( 1 )

[node name="Sprite" type="Sprite" parent="."]
position = Vector2( -0.249998, 63.75 )
scale = Vector2( 2.33571, 2.33571 )
texture = ExtResource( 2 )

[node name="Sprite2" type="Sprite" parent="."]
position = Vector2( -0.249998, -99.25 )
scale = Vector2( 2.33571, 2.33571 )
texture = ExtResource( 3 )
[connection signal="body_entered" from="." to="." method="_on_Goal_body_entered"]
