[gd_scene load_steps=3 format=2]

[ext_resource path="res://Dynamic Fonts/dynamicfont_blocks_96.tres" type="DynamicFont" id=1]
[ext_resource path="res://Scripts/Intro.gd" type="Script" id=2]

[node name="Intro" type="Control"]
anchor_right = 1.0
anchor_bottom = 1.0
margin_right = -1024.0
margin_bottom = -600.0
script = ExtResource( 2 )
__meta__ = {
"_edit_use_anchors_": false
}

[node name="Label" type="Label" parent="."]
margin_right = 1024.0
margin_bottom = 600.0
custom_fonts/font = ExtResource( 1 )
align = 1
valign = 1
__meta__ = {
"_edit_use_anchors_": false
}
