[gd_scene load_steps=8 format=2]

[ext_resource path="res://Tile Sets/tileset_stone.tres" type="TileSet" id=1]
[ext_resource path="res://Scenes/Goal.tscn" type="PackedScene" id=2]
[ext_resource path="res://Scenes/Player.tscn" type="PackedScene" id=3]
[ext_resource path="res://Scenes/Death.tscn" type="PackedScene" id=4]
[ext_resource path="res://Scenes/Counter.tscn" type="PackedScene" id=5]
[ext_resource path="res://Scenes/Enemy.tscn" type="PackedScene" id=7]
[ext_resource path="res://platformer-art-complete-pack-0/Mushroom expansion/Backgrounds/bg_castle.png" type="Texture" id=8]

[node name="Stage 3" type="Node2D"]

[node name="TileMap" type="TileMap" parent="."]
scale = Vector2( 0.5, 0.5 )
tile_set = ExtResource( 1 )
cell_size = Vector2( 128, 128 )
format = 1
tile_data = PoolIntArray( 98, 0, 0, 99, 0, 0, 65634, 0, 0, 65635, 0, 0, 131115, 0, 65536, 131116, 0, 65536, 131117, 0, 65536, 131118, 0, 65536, 131119, 0, 65536, 131120, 0, 65536, 131170, 0, 0, 131171, 0, 0, 196692, 0, 0, 196693, 0, 0, 196694, 0, 0, 196695, 0, 0, 196696, 0, 0, 196697, 0, 0, 196698, 0, 0, 196699, 0, 0, 196706, 0, 0, 196707, 0, 0, 196725, 0, 0, 262159, 0, 65536, 262160, 0, 65536, 262161, 0, 65536, 262162, 0, 65536, 262163, 0, 65536, 262164, 0, 65536, 262165, 0, 65536, 262166, 0, 65536, 262167, 0, 65536, 262168, 0, 65536, 262169, 0, 65536, 262170, 0, 65536, 262185, 0, 65536, 262186, 0, 65536, 262187, 0, 65536, 262188, 0, 65536, 262189, 0, 65536, 262190, 0, 65536, 262191, 0, 65536, 262205, 0, 65536, 262213, 0, 65536, 262214, 0, 65536, 262215, 0, 65536, 262216, 0, 65536, 262217, 0, 65536, 262218, 0, 65536, 262227, 0, 0, 262228, 0, 0, 262250, 0, 0, 262259, 0, 0, 262261, 0, 0, 327762, 0, 0, 327763, 0, 0, 327764, 0, 0, 327786, 0, 0, 327792, 0, 0, 327793, 0, 0, 327795, 0, 0, 327797, 0, 0, 393216, 0, 0, 393217, 0, 0, 393218, 0, 0, 393219, 0, 0, 393220, 0, 0, 393221, 0, 0, 393222, 0, 0, 393223, 0, 0, 393224, 0, 0, 393225, 0, 0, 393226, 0, 0, 393227, 0, 0, 393228, 0, 0, 393229, 0, 0, 393230, 0, 0, 393231, 0, 0, 393232, 0, 0, 393233, 0, 0, 393234, 0, 0, 393235, 0, 0, 393236, 0, 0, 393237, 0, 0, 393238, 0, 0, 393239, 0, 0, 393240, 0, 0, 393241, 0, 0, 393242, 0, 0, 393243, 0, 0, 393246, 0, 0, 393247, 0, 0, 393248, 0, 0, 393249, 0, 0, 393250, 0, 0, 393253, 0, 0, 393254, 0, 0, 393255, 0, 0, 393256, 0, 0, 393257, 0, 0, 393258, 0, 0, 393259, 0, 0, 393260, 0, 0, 393261, 0, 0, 393262, 0, 0, 393263, 0, 0, 393264, 0, 0, 393265, 0, 0, 393266, 0, 0, 393267, 0, 0, 393268, 0, 0, 393269, 0, 0, 393272, 0, 0, 393275, 0, 0, 393279, 0, 0, 393280, 0, 0, 393281, 0, 0, 393282, 0, 0, 393283, 0, 0, 393284, 0, 0, 393285, 0, 0, 393286, 0, 0, 393287, 0, 0, 393288, 0, 0, 393289, 0, 0, 393290, 0, 0, 393291, 0, 0, 393292, 0, 0, 393293, 0, 0, 393294, 0, 0, 393295, 0, 0, 393298, 0, 0, 393299, 0, 0, 393300, 0, 0, 393301, 0, 0, 393302, 0, 0, 393303, 0, 0, 393304, 0, 0, 393305, 0, 0, 393306, 0, 0, 393307, 0, 0, 393308, 0, 0, 393309, 0, 0, 393310, 0, 0, 393311, 0, 0, 393314, 0, 0, 393315, 0, 0, 393316, 0, 0, 393320, 0, 0, 393321, 0, 0, 393322, 0, 0, 393323, 0, 0, 393324, 0, 0, 393325, 0, 0, 393326, 0, 0, 393328, 0, 0, 393329, 0, 0, 393331, 0, 0, 393333, 0, 0, 393337, 0, 0, 393338, 0, 0, 393339, 0, 0, 393340, 0, 0, 393341, 0, 0, 393342, 0, 0 )

[node name="Player" parent="." instance=ExtResource( 3 )]
position = Vector2( 512, 232 )

[node name="Goal" parent="." instance=ExtResource( 2 )]
position = Vector2( 7952, 236 )

[node name="Death" parent="." instance=ExtResource( 4 )]
position = Vector2( 2750.42, 517.321 )

[node name="Death4" parent="." instance=ExtResource( 4 )]
position = Vector2( 594.913, 534.565 )

[node name="Death2" parent="." instance=ExtResource( 4 )]
position = Vector2( 4819.7, 525.943 )

[node name="Death3" parent="." instance=ExtResource( 4 )]
position = Vector2( 7026.94, 517.321 )

[node name="CanvasLayer" type="CanvasLayer" parent="."]

[node name="Counter" parent="CanvasLayer" instance=ExtResource( 5 )]
margin_bottom = 96.0

[node name="ParallaxBackground" type="ParallaxBackground" parent="."]

[node name="bg_castle" type="Sprite" parent="ParallaxBackground"]
position = Vector2( 547.805, 376.896 )
scale = Vector2( 1.44481, 1.44481 )
texture = ExtResource( 8 )

[node name="Enemy" parent="." instance=ExtResource( 7 )]
position = Vector2( 1750.14, 368.503 )

[node name="Enemy2" parent="." instance=ExtResource( 7 )]
position = Vector2( 3404.27, 344.53 )

[node name="Enemy3" parent="." instance=ExtResource( 7 )]
position = Vector2( 5085.16, 350.523 )

[node name="Enemy4" parent="." instance=ExtResource( 7 )]
position = Vector2( 5828.32, 152.747 )

[node name="Enemy" parent="Enemy4" instance=ExtResource( 7 )]
position = Vector2( 1240.6, 185.79 )
