; Engine configuration file.
; It's best edited using the editor UI and not directly,
; since the parameters that go here are not all obvious.
;
; Format:
;   [section] ; section goes between []
;   param=value ; assign values to parameters

config_version=4

_global_script_classes=[  ]
_global_script_class_icons={

}

[application]

config/name="Game Jam"
run/main_scene="res://Scenes/Main Menu.tscn"
config/icon="res://icon.png"

[autoload]

Global="*res://Scripts/Global.gd"

[layer_names]

2d_physics/layer_1="player"
3d_render/layer_1="player"
3d_physics/layer_1="player"
2d_physics/layer_2="enemy"
3d_render/layer_2="enemy"
3d_physics/layer_2="enemy"
2d_physics/layer_3="wall"
3d_render/layer_3="wall"
3d_physics/layer_3="wall"
2d_physics/layer_4="void"
3d_render/layer_4="void"
3d_physics/layer_4="void"
2d_physics/layer_5="goal"
3d_render/layer_5="goal"
3d_physics/layer_5="goal"

[rendering]

environment/default_environment="res://default_env.tres"
